%YAML 1.1
%TAG !u! tag:unity3d.com,2011:
--- !u!1 &3068399019131902610
GameObject:
  m_ObjectHideFlags: 0
  m_CorrespondingSourceObject: {fileID: 0}
  m_PrefabInstance: {fileID: 0}
  m_PrefabAsset: {fileID: 0}
  serializedVersion: 6
  m_Component:
  - component: {fileID: 9099073272406802570}
  - component: {fileID: 2935416053627091414}
  - component: {fileID: 7302475898493586515}
  m_Layer: 0
  m_Name: Layer1
  m_TagString: Untagged
  m_Icon: {fileID: 0}
  m_NavMeshLayer: 0
  m_StaticEditorFlags: 0
  m_IsActive: 1
--- !u!4 &9099073272406802570
Transform:
  m_ObjectHideFlags: 0
  m_CorrespondingSourceObject: {fileID: 0}
  m_PrefabInstance: {fileID: 0}
  m_PrefabAsset: {fileID: 0}
  m_GameObject: {fileID: 3068399019131902610}
  m_LocalRotation: {x: -0, y: -0, z: -0, w: 1}
  m_LocalPosition: {x: 0, y: 0, z: 0}
  m_LocalScale: {x: 1, y: 1, z: 1}
  m_ConstrainProportionsScale: 0
  m_Children: []
  m_Father: {fileID: 3868434067145876461}
  m_RootOrder: 0
  m_LocalEulerAnglesHint: {x: 0, y: 0, z: 0}
--- !u!1839735485 &2935416053627091414
Tilemap:
  m_ObjectHideFlags: 0
  m_CorrespondingSourceObject: {fileID: 0}
  m_PrefabInstance: {fileID: 0}
  m_PrefabAsset: {fileID: 0}
  m_GameObject: {fileID: 3068399019131902610}
  m_Enabled: 1
  m_Tiles:
  - first: {x: -3, y: -8, z: 0}
    second:
      serializedVersion: 2
      m_TileIndex: 58
      m_TileSpriteIndex: 58
      m_TileMatrixIndex: 0
      m_TileColorIndex: 0
      m_TileObjectToInstantiateIndex: 65535
      dummyAlignment: 0
      m_AllTileFlags: 1073741825
  - first: {x: -3, y: -7, z: 0}
    second:
      serializedVersion: 2
      m_TileIndex: 50
      m_TileSpriteIndex: 50
      m_TileMatrixIndex: 0
      m_TileColorIndex: 0
      m_TileObjectToInstantiateIndex: 65535
      dummyAlignment: 0
      m_AllTileFlags: 1073741825
  - first: {x: -2, y: -7, z: 0}
    second:
      serializedVersion: 2
      m_TileIndex: 51
      m_TileSpriteIndex: 51
      m_TileMatrixIndex: 0
      m_TileColorIndex: 0
      m_TileObjectToInstantiateIndex: 65535
      dummyAlignment: 0
      m_AllTileFlags: 1073741825
  - first: {x: -1, y: -7, z: 0}
    second:
      serializedVersion: 2
      m_TileIndex: 52
      m_TileSpriteIndex: 52
      m_TileMatrixIndex: 0
      m_TileColorIndex: 0
      m_TileObjectToInstantiateIndex: 65535
      dummyAlignment: 0
      m_AllTileFlags: 1073741825
  - first: {x: 0, y: -7, z: 0}
    second:
      serializedVersion: 2
      m_TileIndex: 53
      m_TileSpriteIndex: 53
      m_TileMatrixIndex: 0
      m_TileColorIndex: 0
      m_TileObjectToInstantiateIndex: 65535
      dummyAlignment: 0
      m_AllTileFlags: 1073741825
  - first: {x: 1, y: -7, z: 0}
    second:
      serializedVersion: 2
      m_TileIndex: 54
      m_TileSpriteIndex: 54
      m_TileMatrixIndex: 0
      m_TileColorIndex: 0
      m_TileObjectToInstantiateIndex: 65535
      dummyAlignment: 0
      m_AllTileFlags: 1073741825
  - first: {x: 2, y: -7, z: 0}
    second:
      serializedVersion: 2
      m_TileIndex: 55
      m_TileSpriteIndex: 55
      m_TileMatrixIndex: 0
      m_TileColorIndex: 0
      m_TileObjectToInstantiateIndex: 65535
      dummyAlignment: 0
      m_AllTileFlags: 1073741825
  - first: {x: 3, y: -7, z: 0}
    second:
      serializedVersion: 2
      m_TileIndex: 56
      m_TileSpriteIndex: 56
      m_TileMatrixIndex: 0
      m_TileColorIndex: 0
      m_TileObjectToInstantiateIndex: 65535
      dummyAlignment: 0
      m_AllTileFlags: 1073741825
  - first: {x: 4, y: -7, z: 0}
    second:
      serializedVersion: 2
      m_TileIndex: 57
      m_TileSpriteIndex: 57
      m_TileMatrixIndex: 0
      m_TileColorIndex: 0
      m_TileObjectToInstantiateIndex: 65535
      dummyAlignment: 0
      m_AllTileFlags: 1073741825
  - first: {x: -3, y: -6, z: 0}
    second:
      serializedVersion: 2
      m_TileIndex: 42
      m_TileSpriteIndex: 42
      m_TileMatrixIndex: 0
      m_TileColorIndex: 0
      m_TileObjectToInstantiateIndex: 65535
      dummyAlignment: 0
      m_AllTileFlags: 1073741825
  - first: {x: -2, y: -6, z: 0}
    second:
      serializedVersion: 2
      m_TileIndex: 43
      m_TileSpriteIndex: 43
      m_TileMatrixIndex: 0
      m_TileColorIndex: 0
      m_TileObjectToInstantiateIndex: 65535
      dummyAlignment: 0
      m_AllTileFlags: 1073741825
  - first: {x: -1, y: -6, z: 0}
    second:
      serializedVersion: 2
      m_TileIndex: 44
      m_TileSpriteIndex: 44
      m_TileMatrixIndex: 0
      m_TileColorIndex: 0
      m_TileObjectToInstantiateIndex: 65535
      dummyAlignment: 0
      m_AllTileFlags: 1073741825
  - first: {x: 0, y: -6, z: 0}
    second:
      serializedVersion: 2
      m_TileIndex: 45
      m_TileSpriteIndex: 45
      m_TileMatrixIndex: 0
      m_TileColorIndex: 0
      m_TileObjectToInstantiateIndex: 65535
      dummyAlignment: 0
      m_AllTileFlags: 1073741825
  - first: {x: 1, y: -6, z: 0}
    second:
      serializedVersion: 2
      m_TileIndex: 46
      m_TileSpriteIndex: 46
      m_TileMatrixIndex: 0
      m_TileColorIndex: 0
      m_TileObjectToInstantiateIndex: 65535
      dummyAlignment: 0
      m_AllTileFlags: 1073741825
  - first: {x: 2, y: -6, z: 0}
    second:
      serializedVersion: 2
      m_TileIndex: 47
      m_TileSpriteIndex: 47
      m_TileMatrixIndex: 0
      m_TileColorIndex: 0
      m_TileObjectToInstantiateIndex: 65535
      dummyAlignment: 0
      m_AllTileFlags: 1073741825
  - first: {x: 3, y: -6, z: 0}
    second:
      serializedVersion: 2
      m_TileIndex: 48
      m_TileSpriteIndex: 48
      m_TileMatrixIndex: 0
      m_TileColorIndex: 0
      m_TileObjectToInstantiateIndex: 65535
      dummyAlignment: 0
      m_AllTileFlags: 1073741825
  - first: {x: 4, y: -6, z: 0}
    second:
      serializedVersion: 2
      m_TileIndex: 49
      m_TileSpriteIndex: 49
      m_TileMatrixIndex: 0
      m_TileColorIndex: 0
      m_TileObjectToInstantiateIndex: 65535
      dummyAlignment: 0
      m_AllTileFlags: 1073741825
  - first: {x: 9, y: -6, z: 0}
    second:
      serializedVersion: 2
      m_TileIndex: 101
      m_TileSpriteIndex: 101
      m_TileMatrixIndex: 0
      m_TileColorIndex: 0
      m_TileObjectToInstantiateIndex: 65535
      dummyAlignment: 0
      m_AllTileFlags: 1073741825
  - first: {x: 10, y: -6, z: 0}
    second:
      serializedVersion: 2
      m_TileIndex: 102
      m_TileSpriteIndex: 102
      m_TileMatrixIndex: 0
      m_TileColorIndex: 0
      m_TileObjectToInstantiateIndex: 65535
      dummyAlignment: 0
      m_AllTileFlags: 1073741825
  - first: {x: 11, y: -6, z: 0}
    second:
      serializedVersion: 2
      m_TileIndex: 103
      m_TileSpriteIndex: 103
      m_TileMatrixIndex: 0
      m_TileColorIndex: 0
      m_TileObjectToInstantiateIndex: 65535
      dummyAlignment: 0
      m_AllTileFlags: 1073741825
  - first: {x: 12, y: -6, z: 0}
    second:
      serializedVersion: 2
      m_TileIndex: 104
      m_TileSpriteIndex: 104
      m_TileMatrixIndex: 0
      m_TileColorIndex: 0
      m_TileObjectToInstantiateIndex: 65535
      dummyAlignment: 0
      m_AllTileFlags: 1073741825
  - first: {x: 13, y: -6, z: 0}
    second:
      serializedVersion: 2
      m_TileIndex: 105
      m_TileSpriteIndex: 105
      m_TileMatrixIndex: 0
      m_TileColorIndex: 0
      m_TileObjectToInstantiateIndex: 65535
      dummyAlignment: 0
      m_AllTileFlags: 1073741825
  - first: {x: 14, y: -6, z: 0}
    second:
      serializedVersion: 2
      m_TileIndex: 106
      m_TileSpriteIndex: 106
      m_TileMatrixIndex: 0
      m_TileColorIndex: 0
      m_TileObjectToInstantiateIndex: 65535
      dummyAlignment: 0
      m_AllTileFlags: 1073741825
  - first: {x: -3, y: -5, z: 0}
    second:
      serializedVersion: 2
      m_TileIndex: 34
      m_TileSpriteIndex: 34
      m_TileMatrixIndex: 0
      m_TileColorIndex: 0
      m_TileObjectToInstantiateIndex: 65535
      dummyAlignment: 0
      m_AllTileFlags: 1073741825
  - first: {x: -2, y: -5, z: 0}
    second:
      serializedVersion: 2
      m_TileIndex: 35
      m_TileSpriteIndex: 35
      m_TileMatrixIndex: 0
      m_TileColorIndex: 0
      m_TileObjectToInstantiateIndex: 65535
      dummyAlignment: 0
      m_AllTileFlags: 1073741825
  - first: {x: -1, y: -5, z: 0}
    second:
      serializedVersion: 2
      m_TileIndex: 36
      m_TileSpriteIndex: 36
      m_TileMatrixIndex: 0
      m_TileColorIndex: 0
      m_TileObjectToInstantiateIndex: 65535
      dummyAlignment: 0
      m_AllTileFlags: 1073741825
  - first: {x: 0, y: -5, z: 0}
    second:
      serializedVersion: 2
      m_TileIndex: 37
      m_TileSpriteIndex: 37
      m_TileMatrixIndex: 0
      m_TileColorIndex: 0
      m_TileObjectToInstantiateIndex: 65535
      dummyAlignment: 0
      m_AllTileFlags: 1073741825
  - first: {x: 1, y: -5, z: 0}
    second:
      serializedVersion: 2
      m_TileIndex: 38
      m_TileSpriteIndex: 38
      m_TileMatrixIndex: 0
      m_TileColorIndex: 0
      m_TileObjectToInstantiateIndex: 65535
      dummyAlignment: 0
      m_AllTileFlags: 1073741825
  - first: {x: 2, y: -5, z: 0}
    second:
      serializedVersion: 2
      m_TileIndex: 39
      m_TileSpriteIndex: 39
      m_TileMatrixIndex: 0
      m_TileColorIndex: 0
      m_TileObjectToInstantiateIndex: 65535
      dummyAlignment: 0
      m_AllTileFlags: 1073741825
  - first: {x: 3, y: -5, z: 0}
    second:
      serializedVersion: 2
      m_TileIndex: 40
      m_TileSpriteIndex: 40
      m_TileMatrixIndex: 0
      m_TileColorIndex: 0
      m_TileObjectToInstantiateIndex: 65535
      dummyAlignment: 0
      m_AllTileFlags: 1073741825
  - first: {x: 4, y: -5, z: 0}
    second:
      serializedVersion: 2
      m_TileIndex: 41
      m_TileSpriteIndex: 41
      m_TileMatrixIndex: 0
      m_TileColorIndex: 0
      m_TileObjectToInstantiateIndex: 65535
      dummyAlignment: 0
      m_AllTileFlags: 1073741825
  - first: {x: 9, y: -5, z: 0}
    second:
      serializedVersion: 2
      m_TileIndex: 94
      m_TileSpriteIndex: 94
      m_TileMatrixIndex: 0
      m_TileColorIndex: 0
      m_TileObjectToInstantiateIndex: 65535
      dummyAlignment: 0
      m_AllTileFlags: 1073741825
  - first: {x: 10, y: -5, z: 0}
    second:
      serializedVersion: 2
      m_TileIndex: 95
      m_TileSpriteIndex: 95
      m_TileMatrixIndex: 0
      m_TileColorIndex: 0
      m_TileObjectToInstantiateIndex: 65535
      dummyAlignment: 0
      m_AllTileFlags: 1073741825
  - first: {x: 11, y: -5, z: 0}
    second:
      serializedVersion: 2
      m_TileIndex: 96
      m_TileSpriteIndex: 96
      m_TileMatrixIndex: 0
      m_TileColorIndex: 0
      m_TileObjectToInstantiateIndex: 65535
      dummyAlignment: 0
      m_AllTileFlags: 1073741825
  - first: {x: 12, y: -5, z: 0}
    second:
      serializedVersion: 2
      m_TileIndex: 97
      m_TileSpriteIndex: 97
      m_TileMatrixIndex: 0
      m_TileColorIndex: 0
      m_TileObjectToInstantiateIndex: 65535
      dummyAlignment: 0
      m_AllTileFlags: 1073741825
  - first: {x: 13, y: -5, z: 0}
    second:
      serializedVersion: 2
      m_TileIndex: 98
      m_TileSpriteIndex: 98
      m_TileMatrixIndex: 0
      m_TileColorIndex: 0
      m_TileObjectToInstantiateIndex: 65535
      dummyAlignment: 0
      m_AllTileFlags: 1073741825
  - first: {x: 14, y: -5, z: 0}
    second:
      serializedVersion: 2
      m_TileIndex: 99
      m_TileSpriteIndex: 99
      m_TileMatrixIndex: 0
      m_TileColorIndex: 0
      m_TileObjectToInstantiateIndex: 65535
      dummyAlignment: 0
      m_AllTileFlags: 1073741825
  - first: {x: 15, y: -5, z: 0}
    second:
      serializedVersion: 2
      m_TileIndex: 100
      m_TileSpriteIndex: 100
      m_TileMatrixIndex: 0
      m_TileColorIndex: 0
      m_TileObjectToInstantiateIndex: 65535
      dummyAlignment: 0
      m_AllTileFlags: 1073741825
  - first: {x: -3, y: -4, z: 0}
    second:
      serializedVersion: 2
      m_TileIndex: 26
      m_TileSpriteIndex: 26
      m_TileMatrixIndex: 0
      m_TileColorIndex: 0
      m_TileObjectToInstantiateIndex: 65535
      dummyAlignment: 0
      m_AllTileFlags: 1073741825
  - first: {x: -2, y: -4, z: 0}
    second:
      serializedVersion: 2
      m_TileIndex: 27
      m_TileSpriteIndex: 27
      m_TileMatrixIndex: 0
      m_TileColorIndex: 0
      m_TileObjectToInstantiateIndex: 65535
      dummyAlignment: 0
      m_AllTileFlags: 1073741825
  - first: {x: -1, y: -4, z: 0}
    second:
      serializedVersion: 2
      m_TileIndex: 28
      m_TileSpriteIndex: 28
      m_TileMatrixIndex: 0
      m_TileColorIndex: 0
      m_TileObjectToInstantiateIndex: 65535
      dummyAlignment: 0
      m_AllTileFlags: 1073741825
  - first: {x: 0, y: -4, z: 0}
    second:
      serializedVersion: 2
      m_TileIndex: 29
      m_TileSpriteIndex: 29
      m_TileMatrixIndex: 0
      m_TileColorIndex: 0
      m_TileObjectToInstantiateIndex: 65535
      dummyAlignment: 0
      m_AllTileFlags: 1073741825
  - first: {x: 1, y: -4, z: 0}
    second:
      serializedVersion: 2
      m_TileIndex: 30
      m_TileSpriteIndex: 30
      m_TileMatrixIndex: 0
      m_TileColorIndex: 0
      m_TileObjectToInstantiateIndex: 65535
      dummyAlignment: 0
      m_AllTileFlags: 1073741825
  - first: {x: 2, y: -4, z: 0}
    second:
      serializedVersion: 2
      m_TileIndex: 31
      m_TileSpriteIndex: 31
      m_TileMatrixIndex: 0
      m_TileColorIndex: 0
      m_TileObjectToInstantiateIndex: 65535
      dummyAlignment: 0
      m_AllTileFlags: 1073741825
  - first: {x: 3, y: -4, z: 0}
    second:
      serializedVersion: 2
      m_TileIndex: 32
      m_TileSpriteIndex: 32
      m_TileMatrixIndex: 0
      m_TileColorIndex: 0
      m_TileObjectToInstantiateIndex: 65535
      dummyAlignment: 0
      m_AllTileFlags: 1073741825
  - first: {x: 4, y: -4, z: 0}
    second:
      serializedVersion: 2
      m_TileIndex: 33
      m_TileSpriteIndex: 33
      m_TileMatrixIndex: 0
      m_TileColorIndex: 0
      m_TileObjectToInstantiateIndex: 65535
      dummyAlignment: 0
      m_AllTileFlags: 1073741825
  - first: {x: 9, y: -4, z: 0}
    second:
      serializedVersion: 2
      m_TileIndex: 87
      m_TileSpriteIndex: 87
      m_TileMatrixIndex: 0
      m_TileColorIndex: 0
      m_TileObjectToInstantiateIndex: 65535
      dummyAlignment: 0
      m_AllTileFlags: 1073741825
  - first: {x: 10, y: -4, z: 0}
    second:
      serializedVersion: 2
      m_TileIndex: 88
      m_TileSpriteIndex: 88
      m_TileMatrixIndex: 0
      m_TileColorIndex: 0
      m_TileObjectToInstantiateIndex: 65535
      dummyAlignment: 0
      m_AllTileFlags: 1073741825
  - first: {x: 11, y: -4, z: 0}
    second:
      serializedVersion: 2
      m_TileIndex: 89
      m_TileSpriteIndex: 89
      m_TileMatrixIndex: 0
      m_TileColorIndex: 0
      m_TileObjectToInstantiateIndex: 65535
      dummyAlignment: 0
      m_AllTileFlags: 1073741825
  - first: {x: 12, y: -4, z: 0}
    second:
      serializedVersion: 2
      m_TileIndex: 90
      m_TileSpriteIndex: 90
      m_TileMatrixIndex: 0
      m_TileColorIndex: 0
      m_TileObjectToInstantiateIndex: 65535
      dummyAlignment: 0
      m_AllTileFlags: 1073741825
  - first: {x: 13, y: -4, z: 0}
    second:
      serializedVersion: 2
      m_TileIndex: 91
      m_TileSpriteIndex: 91
      m_TileMatrixIndex: 0
      m_TileColorIndex: 0
      m_TileObjectToInstantiateIndex: 65535
      dummyAlignment: 0
      m_AllTileFlags: 1073741825
  - first: {x: 14, y: -4, z: 0}
    second:
      serializedVersion: 2
      m_TileIndex: 92
      m_TileSpriteIndex: 92
      m_TileMatrixIndex: 0
      m_TileColorIndex: 0
      m_TileObjectToInstantiateIndex: 65535
      dummyAlignment: 0
      m_AllTileFlags: 1073741825
  - first: {x: 15, y: -4, z: 0}
    second:
      serializedVersion: 2
      m_TileIndex: 93
      m_TileSpriteIndex: 93
      m_TileMatrixIndex: 0
      m_TileColorIndex: 0
      m_TileObjectToInstantiateIndex: 65535
      dummyAlignment: 0
      m_AllTileFlags: 1073741825
  - first: {x: -3, y: -3, z: 0}
    second:
      serializedVersion: 2
      m_TileIndex: 18
      m_TileSpriteIndex: 18
      m_TileMatrixIndex: 0
      m_TileColorIndex: 0
      m_TileObjectToInstantiateIndex: 65535
      dummyAlignment: 0
      m_AllTileFlags: 1073741825
  - first: {x: -2, y: -3, z: 0}
    second:
      serializedVersion: 2
      m_TileIndex: 19
      m_TileSpriteIndex: 19
      m_TileMatrixIndex: 0
      m_TileColorIndex: 0
      m_TileObjectToInstantiateIndex: 65535
      dummyAlignment: 0
      m_AllTileFlags: 1073741825
  - first: {x: -1, y: -3, z: 0}
    second:
      serializedVersion: 2
      m_TileIndex: 20
      m_TileSpriteIndex: 20
      m_TileMatrixIndex: 0
      m_TileColorIndex: 0
      m_TileObjectToInstantiateIndex: 65535
      dummyAlignment: 0
      m_AllTileFlags: 1073741825
  - first: {x: 0, y: -3, z: 0}
    second:
      serializedVersion: 2
      m_TileIndex: 21
      m_TileSpriteIndex: 21
      m_TileMatrixIndex: 0
      m_TileColorIndex: 0
      m_TileObjectToInstantiateIndex: 65535
      dummyAlignment: 0
      m_AllTileFlags: 1073741825
  - first: {x: 1, y: -3, z: 0}
    second:
      serializedVersion: 2
      m_TileIndex: 22
      m_TileSpriteIndex: 22
      m_TileMatrixIndex: 0
      m_TileColorIndex: 0
      m_TileObjectToInstantiateIndex: 65535
      dummyAlignment: 0
      m_AllTileFlags: 1073741825
  - first: {x: 2, y: -3, z: 0}
    second:
      serializedVersion: 2
      m_TileIndex: 23
      m_TileSpriteIndex: 23
      m_TileMatrixIndex: 0
      m_TileColorIndex: 0
      m_TileObjectToInstantiateIndex: 65535
      dummyAlignment: 0
      m_AllTileFlags: 1073741825
  - first: {x: 3, y: -3, z: 0}
    second:
      serializedVersion: 2
      m_TileIndex: 24
      m_TileSpriteIndex: 24
      m_TileMatrixIndex: 0
      m_TileColorIndex: 0
      m_TileObjectToInstantiateIndex: 65535
      dummyAlignment: 0
      m_AllTileFlags: 1073741825
  - first: {x: 4, y: -3, z: 0}
    second:
      serializedVersion: 2
      m_TileIndex: 25
      m_TileSpriteIndex: 25
      m_TileMatrixIndex: 0
      m_TileColorIndex: 0
      m_TileObjectToInstantiateIndex: 65535
      dummyAlignment: 0
      m_AllTileFlags: 1073741825
  - first: {x: 9, y: -3, z: 0}
    second:
      serializedVersion: 2
      m_TileIndex: 80
      m_TileSpriteIndex: 80
      m_TileMatrixIndex: 0
      m_TileColorIndex: 0
      m_TileObjectToInstantiateIndex: 65535
      dummyAlignment: 0
      m_AllTileFlags: 1073741825
  - first: {x: 10, y: -3, z: 0}
    second:
      serializedVersion: 2
      m_TileIndex: 81
      m_TileSpriteIndex: 81
      m_TileMatrixIndex: 0
      m_TileColorIndex: 0
      m_TileObjectToInstantiateIndex: 65535
      dummyAlignment: 0
      m_AllTileFlags: 1073741825
  - first: {x: 11, y: -3, z: 0}
    second:
      serializedVersion: 2
      m_TileIndex: 82
      m_TileSpriteIndex: 82
      m_TileMatrixIndex: 0
      m_TileColorIndex: 0
      m_TileObjectToInstantiateIndex: 65535
      dummyAlignment: 0
      m_AllTileFlags: 1073741825
  - first: {x: 12, y: -3, z: 0}
    second:
      serializedVersion: 2
      m_TileIndex: 83
      m_TileSpriteIndex: 83
      m_TileMatrixIndex: 0
      m_TileColorIndex: 0
      m_TileObjectToInstantiateIndex: 65535
      dummyAlignment: 0
      m_AllTileFlags: 1073741825
  - first: {x: 13, y: -3, z: 0}
    second:
      serializedVersion: 2
      m_TileIndex: 84
      m_TileSpriteIndex: 84
      m_TileMatrixIndex: 0
      m_TileColorIndex: 0
      m_TileObjectToInstantiateIndex: 65535
      dummyAlignment: 0
      m_AllTileFlags: 1073741825
  - first: {x: 14, y: -3, z: 0}
    second:
      serializedVersion: 2
      m_TileIndex: 85
      m_TileSpriteIndex: 85
      m_TileMatrixIndex: 0
      m_TileColorIndex: 0
      m_TileObjectToInstantiateIndex: 65535
      dummyAlignment: 0
      m_AllTileFlags: 1073741825
  - first: {x: 15, y: -3, z: 0}
    second:
      serializedVersion: 2
      m_TileIndex: 86
      m_TileSpriteIndex: 86
      m_TileMatrixIndex: 0
      m_TileColorIndex: 0
      m_TileObjectToInstantiateIndex: 65535
      dummyAlignment: 0
      m_AllTileFlags: 1073741825
  - first: {x: -3, y: -2, z: 0}
    second:
      serializedVersion: 2
      m_TileIndex: 10
      m_TileSpriteIndex: 10
      m_TileMatrixIndex: 0
      m_TileColorIndex: 0
      m_TileObjectToInstantiateIndex: 65535
      dummyAlignment: 0
      m_AllTileFlags: 1073741825
  - first: {x: -2, y: -2, z: 0}
    second:
      serializedVersion: 2
      m_TileIndex: 11
      m_TileSpriteIndex: 11
      m_TileMatrixIndex: 0
      m_TileColorIndex: 0
      m_TileObjectToInstantiateIndex: 65535
      dummyAlignment: 0
      m_AllTileFlags: 1073741825
  - first: {x: -1, y: -2, z: 0}
    second:
      serializedVersion: 2
      m_TileIndex: 12
      m_TileSpriteIndex: 12
      m_TileMatrixIndex: 0
      m_TileColorIndex: 0
      m_TileObjectToInstantiateIndex: 65535
      dummyAlignment: 0
      m_AllTileFlags: 1073741825
  - first: {x: 0, y: -2, z: 0}
    second:
      serializedVersion: 2
      m_TileIndex: 13
      m_TileSpriteIndex: 13
      m_TileMatrixIndex: 0
      m_TileColorIndex: 0
      m_TileObjectToInstantiateIndex: 65535
      dummyAlignment: 0
      m_AllTileFlags: 1073741825
  - first: {x: 1, y: -2, z: 0}
    second:
      serializedVersion: 2
      m_TileIndex: 14
      m_TileSpriteIndex: 14
      m_TileMatrixIndex: 0
      m_TileColorIndex: 0
      m_TileObjectToInstantiateIndex: 65535
      dummyAlignment: 0
      m_AllTileFlags: 1073741825
  - first: {x: 2, y: -2, z: 0}
    second:
      serializedVersion: 2
      m_TileIndex: 15
      m_TileSpriteIndex: 15
      m_TileMatrixIndex: 0
      m_TileColorIndex: 0
      m_TileObjectToInstantiateIndex: 65535
      dummyAlignment: 0
      m_AllTileFlags: 1073741825
  - first: {x: 3, y: -2, z: 0}
    second:
      serializedVersion: 2
      m_TileIndex: 16
      m_TileSpriteIndex: 16
      m_TileMatrixIndex: 0
      m_TileColorIndex: 0
      m_TileObjectToInstantiateIndex: 65535
      dummyAlignment: 0
      m_AllTileFlags: 1073741825
  - first: {x: 4, y: -2, z: 0}
    second:
      serializedVersion: 2
      m_TileIndex: 17
      m_TileSpriteIndex: 17
      m_TileMatrixIndex: 0
      m_TileColorIndex: 0
      m_TileObjectToInstantiateIndex: 65535
      dummyAlignment: 0
      m_AllTileFlags: 1073741825
  - first: {x: 9, y: -2, z: 0}
    second:
      serializedVersion: 2
      m_TileIndex: 73
      m_TileSpriteIndex: 73
      m_TileMatrixIndex: 0
      m_TileColorIndex: 0
      m_TileObjectToInstantiateIndex: 65535
      dummyAlignment: 0
      m_AllTileFlags: 1073741825
  - first: {x: 10, y: -2, z: 0}
    second:
      serializedVersion: 2
      m_TileIndex: 74
      m_TileSpriteIndex: 74
      m_TileMatrixIndex: 0
      m_TileColorIndex: 0
      m_TileObjectToInstantiateIndex: 65535
      dummyAlignment: 0
      m_AllTileFlags: 1073741825
  - first: {x: 11, y: -2, z: 0}
    second:
      serializedVersion: 2
      m_TileIndex: 75
      m_TileSpriteIndex: 75
      m_TileMatrixIndex: 0
      m_TileColorIndex: 0
      m_TileObjectToInstantiateIndex: 65535
      dummyAlignment: 0
      m_AllTileFlags: 1073741825
  - first: {x: 12, y: -2, z: 0}
    second:
      serializedVersion: 2
      m_TileIndex: 76
      m_TileSpriteIndex: 76
      m_TileMatrixIndex: 0
      m_TileColorIndex: 0
      m_TileObjectToInstantiateIndex: 65535
      dummyAlignment: 0
      m_AllTileFlags: 1073741825
  - first: {x: 13, y: -2, z: 0}
    second:
      serializedVersion: 2
      m_TileIndex: 77
      m_TileSpriteIndex: 77
      m_TileMatrixIndex: 0
      m_TileColorIndex: 0
      m_TileObjectToInstantiateIndex: 65535
      dummyAlignment: 0
      m_AllTileFlags: 1073741825
  - first: {x: 14, y: -2, z: 0}
    second:
      serializedVersion: 2
      m_TileIndex: 78
      m_TileSpriteIndex: 78
      m_TileMatrixIndex: 0
      m_TileColorIndex: 0
      m_TileObjectToInstantiateIndex: 65535
      dummyAlignment: 0
      m_AllTileFlags: 1073741825
  - first: {x: 15, y: -2, z: 0}
    second:
      serializedVersion: 2
      m_TileIndex: 79
      m_TileSpriteIndex: 79
      m_TileMatrixIndex: 0
      m_TileColorIndex: 0
      m_TileObjectToInstantiateIndex: 65535
      dummyAlignment: 0
      m_AllTileFlags: 1073741825
  - first: {x: -3, y: -1, z: 0}
    second:
      serializedVersion: 2
      m_TileIndex: 2
      m_TileSpriteIndex: 2
      m_TileMatrixIndex: 0
      m_TileColorIndex: 0
      m_TileObjectToInstantiateIndex: 65535
      dummyAlignment: 0
      m_AllTileFlags: 1073741825
  - first: {x: -2, y: -1, z: 0}
    second:
      serializedVersion: 2
      m_TileIndex: 3
      m_TileSpriteIndex: 3
      m_TileMatrixIndex: 0
      m_TileColorIndex: 0
      m_TileObjectToInstantiateIndex: 65535
      dummyAlignment: 0
      m_AllTileFlags: 1073741825
  - first: {x: -1, y: -1, z: 0}
    second:
      serializedVersion: 2
      m_TileIndex: 4
      m_TileSpriteIndex: 4
      m_TileMatrixIndex: 0
      m_TileColorIndex: 0
      m_TileObjectToInstantiateIndex: 65535
      dummyAlignment: 0
      m_AllTileFlags: 1073741825
  - first: {x: 0, y: -1, z: 0}
    second:
      serializedVersion: 2
      m_TileIndex: 5
      m_TileSpriteIndex: 5
      m_TileMatrixIndex: 0
      m_TileColorIndex: 0
      m_TileObjectToInstantiateIndex: 65535
      dummyAlignment: 0
      m_AllTileFlags: 1073741825
  - first: {x: 1, y: -1, z: 0}
    second:
      serializedVersion: 2
      m_TileIndex: 6
      m_TileSpriteIndex: 6
      m_TileMatrixIndex: 0
      m_TileColorIndex: 0
      m_TileObjectToInstantiateIndex: 65535
      dummyAlignment: 0
      m_AllTileFlags: 1073741825
  - first: {x: 2, y: -1, z: 0}
    second:
      serializedVersion: 2
      m_TileIndex: 7
      m_TileSpriteIndex: 7
      m_TileMatrixIndex: 0
      m_TileColorIndex: 0
      m_TileObjectToInstantiateIndex: 65535
      dummyAlignment: 0
      m_AllTileFlags: 1073741825
  - first: {x: 3, y: -1, z: 0}
    second:
      serializedVersion: 2
      m_TileIndex: 8
      m_TileSpriteIndex: 8
      m_TileMatrixIndex: 0
      m_TileColorIndex: 0
      m_TileObjectToInstantiateIndex: 65535
      dummyAlignment: 0
      m_AllTileFlags: 1073741825
  - first: {x: 4, y: -1, z: 0}
    second:
      serializedVersion: 2
      m_TileIndex: 9
      m_TileSpriteIndex: 9
      m_TileMatrixIndex: 0
      m_TileColorIndex: 0
      m_TileObjectToInstantiateIndex: 65535
      dummyAlignment: 0
      m_AllTileFlags: 1073741825
  - first: {x: 9, y: -1, z: 0}
    second:
      serializedVersion: 2
      m_TileIndex: 66
      m_TileSpriteIndex: 66
      m_TileMatrixIndex: 0
      m_TileColorIndex: 0
      m_TileObjectToInstantiateIndex: 65535
      dummyAlignment: 0
      m_AllTileFlags: 1073741825
  - first: {x: 10, y: -1, z: 0}
    second:
      serializedVersion: 2
      m_TileIndex: 67
      m_TileSpriteIndex: 67
      m_TileMatrixIndex: 0
      m_TileColorIndex: 0
      m_TileObjectToInstantiateIndex: 65535
      dummyAlignment: 0
      m_AllTileFlags: 1073741825
  - first: {x: 11, y: -1, z: 0}
    second:
      serializedVersion: 2
      m_TileIndex: 68
      m_TileSpriteIndex: 68
      m_TileMatrixIndex: 0
      m_TileColorIndex: 0
      m_TileObjectToInstantiateIndex: 65535
      dummyAlignment: 0
      m_AllTileFlags: 1073741825
  - first: {x: 12, y: -1, z: 0}
    second:
      serializedVersion: 2
      m_TileIndex: 69
      m_TileSpriteIndex: 69
      m_TileMatrixIndex: 0
      m_TileColorIndex: 0
      m_TileObjectToInstantiateIndex: 65535
      dummyAlignment: 0
      m_AllTileFlags: 1073741825
  - first: {x: 13, y: -1, z: 0}
    second:
      serializedVersion: 2
      m_TileIndex: 70
      m_TileSpriteIndex: 70
      m_TileMatrixIndex: 0
      m_TileColorIndex: 0
      m_TileObjectToInstantiateIndex: 65535
      dummyAlignment: 0
      m_AllTileFlags: 1073741825
  - first: {x: 14, y: -1, z: 0}
    second:
      serializedVersion: 2
      m_TileIndex: 71
      m_TileSpriteIndex: 71
      m_TileMatrixIndex: 0
      m_TileColorIndex: 0
      m_TileObjectToInstantiateIndex: 65535
      dummyAlignment: 0
      m_AllTileFlags: 1073741825
  - first: {x: 15, y: -1, z: 0}
    second:
      serializedVersion: 2
      m_TileIndex: 72
      m_TileSpriteIndex: 72
      m_TileMatrixIndex: 0
      m_TileColorIndex: 0
      m_TileObjectToInstantiateIndex: 65535
      dummyAlignment: 0
      m_AllTileFlags: 1073741825
  - first: {x: -3, y: 0, z: 0}
    second:
      serializedVersion: 2
      m_TileIndex: 0
      m_TileSpriteIndex: 0
      m_TileMatrixIndex: 0
      m_TileColorIndex: 0
      m_TileObjectToInstantiateIndex: 65535
      dummyAlignment: 0
      m_AllTileFlags: 1073741825
  - first: {x: -2, y: 0, z: 0}
    second:
      serializedVersion: 2
      m_TileIndex: 1
      m_TileSpriteIndex: 1
      m_TileMatrixIndex: 0
      m_TileColorIndex: 0
      m_TileObjectToInstantiateIndex: 65535
      dummyAlignment: 0
      m_AllTileFlags: 1073741825
  - first: {x: 9, y: 0, z: 0}
    second:
      serializedVersion: 2
      m_TileIndex: 59
      m_TileSpriteIndex: 59
      m_TileMatrixIndex: 0
      m_TileColorIndex: 0
      m_TileObjectToInstantiateIndex: 65535
      dummyAlignment: 0
      m_AllTileFlags: 1073741825
  - first: {x: 10, y: 0, z: 0}
    second:
      serializedVersion: 2
      m_TileIndex: 60
      m_TileSpriteIndex: 60
      m_TileMatrixIndex: 0
      m_TileColorIndex: 0
      m_TileObjectToInstantiateIndex: 65535
      dummyAlignment: 0
      m_AllTileFlags: 1073741825
  - first: {x: 11, y: 0, z: 0}
    second:
      serializedVersion: 2
      m_TileIndex: 61
      m_TileSpriteIndex: 61
      m_TileMatrixIndex: 0
      m_TileColorIndex: 0
      m_TileObjectToInstantiateIndex: 65535
      dummyAlignment: 0
      m_AllTileFlags: 1073741825
  - first: {x: 12, y: 0, z: 0}
    second:
      serializedVersion: 2
      m_TileIndex: 62
      m_TileSpriteIndex: 62
      m_TileMatrixIndex: 0
      m_TileColorIndex: 0
      m_TileObjectToInstantiateIndex: 65535
      dummyAlignment: 0
      m_AllTileFlags: 1073741825
  - first: {x: 13, y: 0, z: 0}
    second:
      serializedVersion: 2
      m_TileIndex: 63
      m_TileSpriteIndex: 63
      m_TileMatrixIndex: 0
      m_TileColorIndex: 0
      m_TileObjectToInstantiateIndex: 65535
      dummyAlignment: 0
      m_AllTileFlags: 1073741825
  - first: {x: 14, y: 0, z: 0}
    second:
      serializedVersion: 2
      m_TileIndex: 64
      m_TileSpriteIndex: 64
      m_TileMatrixIndex: 0
      m_TileColorIndex: 0
      m_TileObjectToInstantiateIndex: 65535
      dummyAlignment: 0
      m_AllTileFlags: 1073741825
  - first: {x: 15, y: 0, z: 0}
    second:
      serializedVersion: 2
      m_TileIndex: 65
      m_TileSpriteIndex: 65
      m_TileMatrixIndex: 0
      m_TileColorIndex: 0
      m_TileObjectToInstantiateIndex: 65535
      dummyAlignment: 0
      m_AllTileFlags: 1073741825
  m_AnimatedTiles: {}
  m_TileAssetArray:
  - m_RefCount: 1
    m_Data: {fileID: 11400000, guid: b97eeb66f48534042ae7ad49b4b43f4e, type: 2}
  - m_RefCount: 1
    m_Data: {fileID: 11400000, guid: 602515625bdaf24409ecf1737913797f, type: 2}
  - m_RefCount: 1
    m_Data: {fileID: 11400000, guid: e8e87a2b7de121344879d9b6936b1b6b, type: 2}
  - m_RefCount: 1
    m_Data: {fileID: 11400000, guid: ec08e4797c6b9104da251216c45f7b35, type: 2}
  - m_RefCount: 1
    m_Data: {fileID: 11400000, guid: 92228ba6e991c4c439713fc7a4cdea41, type: 2}
  - m_RefCount: 1
    m_Data: {fileID: 11400000, guid: b3e5ddb726402a146bb2805316ff859a, type: 2}
  - m_RefCount: 1
    m_Data: {fileID: 11400000, guid: 5c79f54d54bf575459d37518155547ed, type: 2}
  - m_RefCount: 1
    m_Data: {fileID: 11400000, guid: b120c7bb75874f74aaf55d8d84c533c3, type: 2}
  - m_RefCount: 1
    m_Data: {fileID: 11400000, guid: cfb79e74345fb384883f64cad40989d7, type: 2}
  - m_RefCount: 1
    m_Data: {fileID: 11400000, guid: 3e3573469e93b4f4cb32f22161e11271, type: 2}
  - m_RefCount: 1
    m_Data: {fileID: 11400000, guid: eb0837781afe4fd409d7a41407868756, type: 2}
  - m_RefCount: 1
    m_Data: {fileID: 11400000, guid: 9a418e706d528f34b957438b32560fd5, type: 2}
  - m_RefCount: 1
    m_Data: {fileID: 11400000, guid: 5ca79b48905c63b4aa7f4be8b9060809, type: 2}
  - m_RefCount: 1
    m_Data: {fileID: 11400000, guid: 35d745ccd191fa74f9d8c6a3ea1fbb6b, type: 2}
  - m_RefCount: 1
    m_Data: {fileID: 11400000, guid: fb8163c17a7ab864ba2192f73b939646, type: 2}
  - m_RefCount: 1
    m_Data: {fileID: 11400000, guid: cc341d54bb18a4843a7cff50baecbce4, type: 2}
  - m_RefCount: 1
    m_Data: {fileID: 11400000, guid: 244ca5c4b2cae164199d02828ac52f78, type: 2}
  - m_RefCount: 1
    m_Data: {fileID: 11400000, guid: 3351df3e39e507c41aea43be78172cbb, type: 2}
  - m_RefCount: 1
    m_Data: {fileID: 11400000, guid: 3c6efb25a18f4e3459bcafe5a32a5fd9, type: 2}
  - m_RefCount: 1
    m_Data: {fileID: 11400000, guid: b7b925f81dd124344abc8d4654f93276, type: 2}
  - m_RefCount: 1
    m_Data: {fileID: 11400000, guid: 6383c9472f188f14f8408a06362be646, type: 2}
  - m_RefCount: 1
    m_Data: {fileID: 11400000, guid: 534c0bc6110bf124d96729b2a2921e0e, type: 2}
  - m_RefCount: 1
    m_Data: {fileID: 11400000, guid: 01362066107848d4db62a750c87e46b7, type: 2}
  - m_RefCount: 1
    m_Data: {fileID: 11400000, guid: ac6e4390728b43c4c8bafc6d9b2a993a, type: 2}
  - m_RefCount: 1
    m_Data: {fileID: 11400000, guid: 6d5596ccf11945c4fad8419b6d1e1179, type: 2}
  - m_RefCount: 1
    m_Data: {fileID: 11400000, guid: 1e68f91b1c048bd45b5adc867dcd0041, type: 2}
  - m_RefCount: 1
    m_Data: {fileID: 11400000, guid: 2ce5aa5bae6a9e441b03ec3204d9be27, type: 2}
  - m_RefCount: 1
    m_Data: {fileID: 11400000, guid: 2dcd013358fa30648a3ecc32ab98b01c, type: 2}
  - m_RefCount: 1
    m_Data: {fileID: 11400000, guid: 4fc42251ce17cb649a2f673c18f1bd0b, type: 2}
  - m_RefCount: 1
    m_Data: {fileID: 11400000, guid: 9b8d7feb20a49ac429b9bc824758e72b, type: 2}
  - m_RefCount: 1
    m_Data: {fileID: 11400000, guid: d405a0f49194ce641ba605f7c56cca62, type: 2}
  - m_RefCount: 1
    m_Data: {fileID: 11400000, guid: 1ec413f0d8332004dbe5f1a0daf2d1dc, type: 2}
  - m_RefCount: 1
    m_Data: {fileID: 11400000, guid: 714f80020ac33b84b997e09b71b5733d, type: 2}
  - m_RefCount: 1
    m_Data: {fileID: 11400000, guid: 5b8f983585d2aeb41a79b5a71f02956d, type: 2}
  - m_RefCount: 1
    m_Data: {fileID: 11400000, guid: db07b64ea1375b547aac1fb28a1b3388, type: 2}
  - m_RefCount: 1
    m_Data: {fileID: 11400000, guid: 6acca27f70135fd47a48421ff82417b1, type: 2}
  - m_RefCount: 1
    m_Data: {fileID: 11400000, guid: bac41718e16b93940a540212b8fedd7b, type: 2}
  - m_RefCount: 1
    m_Data: {fileID: 11400000, guid: b6dd3ec02c5688648817adbfdcb219d4, type: 2}
  - m_RefCount: 1
    m_Data: {fileID: 11400000, guid: 223cdeb545fa51a4c83bdf83d676c40e, type: 2}
  - m_RefCount: 1
    m_Data: {fileID: 11400000, guid: 17f0fc2612b3fb44d8f4888414d49759, type: 2}
  - m_RefCount: 1
    m_Data: {fileID: 11400000, guid: 33c92ae854343d54f9769fcd82e77a14, type: 2}
  - m_RefCount: 1
    m_Data: {fileID: 11400000, guid: 16ba5b8bce413f447bd9684d1a5c341b, type: 2}
  - m_RefCount: 1
    m_Data: {fileID: 11400000, guid: 647960256de653b4d81a02ed4d70c7fb, type: 2}
  - m_RefCount: 1
    m_Data: {fileID: 11400000, guid: 096f33f2c7fe30248a8ebda025f51b9f, type: 2}
  - m_RefCount: 1
    m_Data: {fileID: 11400000, guid: 017e7148d57bf9e4db48c3da92d6daff, type: 2}
  - m_RefCount: 1
    m_Data: {fileID: 11400000, guid: ac5ade001e2ef40428d4ae3e1913e419, type: 2}
  - m_RefCount: 1
    m_Data: {fileID: 11400000, guid: 8d032ac67912f8b42ac695a0a0438306, type: 2}
  - m_RefCount: 1
    m_Data: {fileID: 11400000, guid: c2b1060365f57824cb445c069e84858b, type: 2}
  - m_RefCount: 1
    m_Data: {fileID: 11400000, guid: 29c9eba49aaf995428b9c8622451b833, type: 2}
  - m_RefCount: 1
    m_Data: {fileID: 11400000, guid: 2af4ee6e3cbe1a9499fd18d892810252, type: 2}
  - m_RefCount: 1
    m_Data: {fileID: 11400000, guid: 7c3f55f0341e44c42841ca223e9066cc, type: 2}
  - m_RefCount: 1
    m_Data: {fileID: 11400000, guid: ce3b02bcc1328234d8001563d2bd1a1a, type: 2}
  - m_RefCount: 1
    m_Data: {fileID: 11400000, guid: f44f7a3c7f2059b47af78dd3a6116827, type: 2}
  - m_RefCount: 1
    m_Data: {fileID: 11400000, guid: 1c25c05a3596e33449454c204f9e8fec, type: 2}
  - m_RefCount: 1
    m_Data: {fileID: 11400000, guid: 5b8e9b7d80ca4de48a282675084ffcf7, type: 2}
  - m_RefCount: 1
    m_Data: {fileID: 11400000, guid: 5e1c6f9ce04950e4aba984cfd0176a2a, type: 2}
  - m_RefCount: 1
    m_Data: {fileID: 11400000, guid: 99db4f96cd8df0444a6a68923133899c, type: 2}
  - m_RefCount: 1
    m_Data: {fileID: 11400000, guid: 2c3cc38b6783d5a41a5e73aa16dcb277, type: 2}
  - m_RefCount: 1
    m_Data: {fileID: 11400000, guid: c431b50787bd1a64eb10c2aaef7ff7ee, type: 2}
  - m_RefCount: 1
    m_Data: {fileID: 11400000, guid: cdbb0c6368a63184ca7df9b44ea5c8b1, type: 2}
  - m_RefCount: 1
    m_Data: {fileID: 11400000, guid: 232d4f0195c1c5347a6c731ef9b0b477, type: 2}
  - m_RefCount: 1
    m_Data: {fileID: 11400000, guid: 6e43d14f2cc0baf4a9da4f6908a05089, type: 2}
  - m_RefCount: 1
    m_Data: {fileID: 11400000, guid: 61af02fbea964fe4e916f4a8604451cb, type: 2}
  - m_RefCount: 1
    m_Data: {fileID: 11400000, guid: c3cb798e5bd3579499c6224e3acd408a, type: 2}
  - m_RefCount: 1
    m_Data: {fileID: 11400000, guid: 0510a2389fc678f488eb741a4cf5c263, type: 2}
  - m_RefCount: 1
    m_Data: {fileID: 11400000, guid: 8b407e4e4a5ef304baa5378e8daf1ce3, type: 2}
  - m_RefCount: 1
    m_Data: {fileID: 11400000, guid: 533510995584b67418bc2be814bb317b, type: 2}
  - m_RefCount: 1
    m_Data: {fileID: 11400000, guid: 83dd7b60f6325154cb5db33d8afa47b3, type: 2}
  - m_RefCount: 1
    m_Data: {fileID: 11400000, guid: 5c089e1ac1cbd0e47b7f5e0324af27ff, type: 2}
  - m_RefCount: 1
    m_Data: {fileID: 11400000, guid: e6411e12180ebc845b05cdf26399fe9f, type: 2}
  - m_RefCount: 1
    m_Data: {fileID: 11400000, guid: 070b4b11151fddd41b6aa13e708932fc, type: 2}
  - m_RefCount: 1
    m_Data: {fileID: 11400000, guid: 760d679edecea32428a7dab0489f302d, type: 2}
  - m_RefCount: 1
    m_Data: {fileID: 11400000, guid: 3adb8a51d79be4149b0f0516219094e1, type: 2}
  - m_RefCount: 1
    m_Data: {fileID: 11400000, guid: 15955ecae3e54cb4685647f295efdbe7, type: 2}
  - m_RefCount: 1
    m_Data: {fileID: 11400000, guid: 07273aa5ef557eb4b9a27cb496212723, type: 2}
  - m_RefCount: 1
    m_Data: {fileID: 11400000, guid: 4079b6abaa475d548aa46d798a67ab9d, type: 2}
  - m_RefCount: 1
    m_Data: {fileID: 11400000, guid: 8a1f202462d9ddd439433d61dbe3a394, type: 2}
  - m_RefCount: 1
    m_Data: {fileID: 11400000, guid: 5f78fe4f184c9fe43a0638da27d877e2, type: 2}
  - m_RefCount: 1
    m_Data: {fileID: 11400000, guid: 205ada3a3d79c5d4fb215494efe19ff7, type: 2}
  - m_RefCount: 1
    m_Data: {fileID: 11400000, guid: df7631bcecb71a242b8068b18f9595f1, type: 2}
  - m_RefCount: 1
    m_Data: {fileID: 11400000, guid: c19408b7767dc3a418bf4af12b0948b3, type: 2}
  - m_RefCount: 1
    m_Data: {fileID: 11400000, guid: ae6672e07de7eb548908569ee778ffc9, type: 2}
  - m_RefCount: 1
    m_Data: {fileID: 11400000, guid: 9059d4a797a104f4a878b0aacc321a8d, type: 2}
  - m_RefCount: 1
    m_Data: {fileID: 11400000, guid: 0ddeba0d5ff0d4e4aba5f825ed96cb17, type: 2}
  - m_RefCount: 1
    m_Data: {fileID: 11400000, guid: 2e5f9be42db5065499bd30149426fb08, type: 2}
  - m_RefCount: 1
    m_Data: {fileID: 11400000, guid: af148999b56a7544e9dc4bdd82775c9e, type: 2}
  - m_RefCount: 1
    m_Data: {fileID: 11400000, guid: 23ffc8c081defb04eb474dec66e611a2, type: 2}
  - m_RefCount: 1
    m_Data: {fileID: 11400000, guid: 3a289aac0955e3c47889e8014a47a3fa, type: 2}
  - m_RefCount: 1
    m_Data: {fileID: 11400000, guid: 5ced70557f0495843b91b65884ed5156, type: 2}
  - m_RefCount: 1
    m_Data: {fileID: 11400000, guid: 90c579c7382a4704f9216d0a21b7d6d3, type: 2}
  - m_RefCount: 1
    m_Data: {fileID: 11400000, guid: b3714f9bfa8558e4288d0effdba79eb5, type: 2}
  - m_RefCount: 1
    m_Data: {fileID: 11400000, guid: d1eaa1daccc62c84b95455aa280f3af2, type: 2}
  - m_RefCount: 1
    m_Data: {fileID: 11400000, guid: a2b9e9e0400f36c4ca779cedb8c8c8f5, type: 2}
  - m_RefCount: 1
    m_Data: {fileID: 11400000, guid: 17ddcba104b3a1e468637d6ec2936191, type: 2}
  - m_RefCount: 1
    m_Data: {fileID: 11400000, guid: dca0c8e8317256a4a9b07a69a68cebe6, type: 2}
  - m_RefCount: 1
    m_Data: {fileID: 11400000, guid: a39a4df1355dc294a88fe444186c6d81, type: 2}
  - m_RefCount: 1
    m_Data: {fileID: 11400000, guid: 05579d8e0cac3574c9c1cd9267294e8d, type: 2}
  - m_RefCount: 1
    m_Data: {fileID: 11400000, guid: 3ccf64772f98d704980a73e59e3b3938, type: 2}
  - m_RefCount: 1
    m_Data: {fileID: 11400000, guid: 618b22b0de1eb394f9df0b7b0aa26af6, type: 2}
  - m_RefCount: 1
    m_Data: {fileID: 11400000, guid: 84c61c53ef4ba5547a5e5da08a2aec86, type: 2}
  - m_RefCount: 1
    m_Data: {fileID: 11400000, guid: f1476c6571c6e4d4daa6902aabd7db88, type: 2}
  - m_RefCount: 1
    m_Data: {fileID: 11400000, guid: d6e2559cafe5d5d448318ca9bbc02e76, type: 2}
  - m_RefCount: 1
    m_Data: {fileID: 11400000, guid: 02b26942ff0ad4e43afe8f48fd1acec8, type: 2}
  - m_RefCount: 1
    m_Data: {fileID: 11400000, guid: 1516bbe9fd6b3c1409cbbb73a639d040, type: 2}
  - m_RefCount: 1
    m_Data: {fileID: 11400000, guid: e216871ee4bd4254a8b858914352b5db, type: 2}
  - m_RefCount: 1
    m_Data: {fileID: 11400000, guid: 6b4bed0baac4ab24fb150ce5104fb85a, type: 2}
  - m_RefCount: 1
    m_Data: {fileID: 11400000, guid: 7cda58675ed3aa641a90722b7bfe52c2, type: 2}
  m_TileSpriteArray:
  - m_RefCount: 1
    m_Data: {fileID: 21300000, guid: 3a0e0e9389f595442bff65be2c3c7c67, type: 3}
  - m_RefCount: 1
    m_Data: {fileID: 21300002, guid: 3a0e0e9389f595442bff65be2c3c7c67, type: 3}
  - m_RefCount: 1
    m_Data: {fileID: 21300004, guid: 3a0e0e9389f595442bff65be2c3c7c67, type: 3}
  - m_RefCount: 1
    m_Data: {fileID: 21300006, guid: 3a0e0e9389f595442bff65be2c3c7c67, type: 3}
  - m_RefCount: 1
    m_Data: {fileID: 21300008, guid: 3a0e0e9389f595442bff65be2c3c7c67, type: 3}
  - m_RefCount: 1
    m_Data: {fileID: 21300010, guid: 3a0e0e9389f595442bff65be2c3c7c67, type: 3}
  - m_RefCount: 1
    m_Data: {fileID: 21300012, guid: 3a0e0e9389f595442bff65be2c3c7c67, type: 3}
  - m_RefCount: 1
    m_Data: {fileID: 21300014, guid: 3a0e0e9389f595442bff65be2c3c7c67, type: 3}
  - m_RefCount: 1
    m_Data: {fileID: 21300016, guid: 3a0e0e9389f595442bff65be2c3c7c67, type: 3}
  - m_RefCount: 1
    m_Data: {fileID: 21300018, guid: 3a0e0e9389f595442bff65be2c3c7c67, type: 3}
  - m_RefCount: 1
    m_Data: {fileID: 21300020, guid: 3a0e0e9389f595442bff65be2c3c7c67, type: 3}
  - m_RefCount: 1
    m_Data: {fileID: 21300022, guid: 3a0e0e9389f595442bff65be2c3c7c67, type: 3}
  - m_RefCount: 1
    m_Data: {fileID: 21300024, guid: 3a0e0e9389f595442bff65be2c3c7c67, type: 3}
  - m_RefCount: 1
    m_Data: {fileID: 21300026, guid: 3a0e0e9389f595442bff65be2c3c7c67, type: 3}
  - m_RefCount: 1
    m_Data: {fileID: 21300028, guid: 3a0e0e9389f595442bff65be2c3c7c67, type: 3}
  - m_RefCount: 1
    m_Data: {fileID: 21300030, guid: 3a0e0e9389f595442bff65be2c3c7c67, type: 3}
  - m_RefCount: 1
    m_Data: {fileID: 21300032, guid: 3a0e0e9389f595442bff65be2c3c7c67, type: 3}
  - m_RefCount: 1
    m_Data: {fileID: 21300034, guid: 3a0e0e9389f595442bff65be2c3c7c67, type: 3}
  - m_RefCount: 1
    m_Data: {fileID: 21300036, guid: 3a0e0e9389f595442bff65be2c3c7c67, type: 3}
  - m_RefCount: 1
    m_Data: {fileID: 21300038, guid: 3a0e0e9389f595442bff65be2c3c7c67, type: 3}
  - m_RefCount: 1
    m_Data: {fileID: 21300040, guid: 3a0e0e9389f595442bff65be2c3c7c67, type: 3}
  - m_RefCount: 1
    m_Data: {fileID: 21300042, guid: 3a0e0e9389f595442bff65be2c3c7c67, type: 3}
  - m_RefCount: 1
    m_Data: {fileID: 21300044, guid: 3a0e0e9389f595442bff65be2c3c7c67, type: 3}
  - m_RefCount: 1
    m_Data: {fileID: 21300046, guid: 3a0e0e9389f595442bff65be2c3c7c67, type: 3}
  - m_RefCount: 1
    m_Data: {fileID: 21300048, guid: 3a0e0e9389f595442bff65be2c3c7c67, type: 3}
  - m_RefCount: 1
    m_Data: {fileID: 21300050, guid: 3a0e0e9389f595442bff65be2c3c7c67, type: 3}
  - m_RefCount: 1
    m_Data: {fileID: 21300052, guid: 3a0e0e9389f595442bff65be2c3c7c67, type: 3}
  - m_RefCount: 1
    m_Data: {fileID: 21300054, guid: 3a0e0e9389f595442bff65be2c3c7c67, type: 3}
  - m_RefCount: 1
    m_Data: {fileID: 21300056, guid: 3a0e0e9389f595442bff65be2c3c7c67, type: 3}
  - m_RefCount: 1
    m_Data: {fileID: 21300058, guid: 3a0e0e9389f595442bff65be2c3c7c67, type: 3}
  - m_RefCount: 1
    m_Data: {fileID: 21300060, guid: 3a0e0e9389f595442bff65be2c3c7c67, type: 3}
  - m_RefCount: 1
    m_Data: {fileID: 21300062, guid: 3a0e0e9389f595442bff65be2c3c7c67, type: 3}
  - m_RefCount: 1
    m_Data: {fileID: 21300064, guid: 3a0e0e9389f595442bff65be2c3c7c67, type: 3}
  - m_RefCount: 1
    m_Data: {fileID: 21300066, guid: 3a0e0e9389f595442bff65be2c3c7c67, type: 3}
  - m_RefCount: 1
    m_Data: {fileID: 21300068, guid: 3a0e0e9389f595442bff65be2c3c7c67, type: 3}
  - m_RefCount: 1
    m_Data: {fileID: 21300070, guid: 3a0e0e9389f595442bff65be2c3c7c67, type: 3}
  - m_RefCount: 1
    m_Data: {fileID: 21300072, guid: 3a0e0e9389f595442bff65be2c3c7c67, type: 3}
  - m_RefCount: 1
    m_Data: {fileID: 21300074, guid: 3a0e0e9389f595442bff65be2c3c7c67, type: 3}
  - m_RefCount: 1
    m_Data: {fileID: 21300076, guid: 3a0e0e9389f595442bff65be2c3c7c67, type: 3}
  - m_RefCount: 1
    m_Data: {fileID: 21300078, guid: 3a0e0e9389f595442bff65be2c3c7c67, type: 3}
  - m_RefCount: 1
    m_Data: {fileID: 21300080, guid: 3a0e0e9389f595442bff65be2c3c7c67, type: 3}
  - m_RefCount: 1
    m_Data: {fileID: 21300082, guid: 3a0e0e9389f595442bff65be2c3c7c67, type: 3}
  - m_RefCount: 1
    m_Data: {fileID: 21300084, guid: 3a0e0e9389f595442bff65be2c3c7c67, type: 3}
  - m_RefCount: 1
    m_Data: {fileID: 21300086, guid: 3a0e0e9389f595442bff65be2c3c7c67, type: 3}
  - m_RefCount: 1
    m_Data: {fileID: 21300088, guid: 3a0e0e9389f595442bff65be2c3c7c67, type: 3}
  - m_RefCount: 1
    m_Data: {fileID: 21300090, guid: 3a0e0e9389f595442bff65be2c3c7c67, type: 3}
  - m_RefCount: 1
    m_Data: {fileID: 21300092, guid: 3a0e0e9389f595442bff65be2c3c7c67, type: 3}
  - m_RefCount: 1
    m_Data: {fileID: 21300094, guid: 3a0e0e9389f595442bff65be2c3c7c67, type: 3}
  - m_RefCount: 1
    m_Data: {fileID: 21300096, guid: 3a0e0e9389f595442bff65be2c3c7c67, type: 3}
  - m_RefCount: 1
    m_Data: {fileID: 21300098, guid: 3a0e0e9389f595442bff65be2c3c7c67, type: 3}
  - m_RefCount: 1
    m_Data: {fileID: 21300100, guid: 3a0e0e9389f595442bff65be2c3c7c67, type: 3}
  - m_RefCount: 1
    m_Data: {fileID: 21300102, guid: 3a0e0e9389f595442bff65be2c3c7c67, type: 3}
  - m_RefCount: 1
    m_Data: {fileID: 21300104, guid: 3a0e0e9389f595442bff65be2c3c7c67, type: 3}
  - m_RefCount: 1
    m_Data: {fileID: 21300106, guid: 3a0e0e9389f595442bff65be2c3c7c67, type: 3}
  - m_RefCount: 1
    m_Data: {fileID: 21300108, guid: 3a0e0e9389f595442bff65be2c3c7c67, type: 3}
  - m_RefCount: 1
    m_Data: {fileID: 21300110, guid: 3a0e0e9389f595442bff65be2c3c7c67, type: 3}
  - m_RefCount: 1
    m_Data: {fileID: 21300112, guid: 3a0e0e9389f595442bff65be2c3c7c67, type: 3}
  - m_RefCount: 1
    m_Data: {fileID: 21300114, guid: 3a0e0e9389f595442bff65be2c3c7c67, type: 3}
  - m_RefCount: 1
    m_Data: {fileID: 21300116, guid: 3a0e0e9389f595442bff65be2c3c7c67, type: 3}
  - m_RefCount: 1
    m_Data: {fileID: 21300000, guid: 4a754fad3a279344594be4faf04304ba, type: 3}
  - m_RefCount: 1
    m_Data: {fileID: 21300000, guid: 00b29f071c362e94bba19768744e82f7, type: 3}
  - m_RefCount: 1
    m_Data: {fileID: 21300000, guid: e432170b0ade75a44821eaa1051fdde3, type: 3}
  - m_RefCount: 1
    m_Data: {fileID: 21300000, guid: 7315590d384708f47a5abe80b60c14b5, type: 3}
  - m_RefCount: 1
    m_Data: {fileID: 21300000, guid: 8bfcee19601761f4a848332551391f3d, type: 3}
  - m_RefCount: 1
    m_Data: {fileID: 21300000, guid: cd0bb93d8068d3546a13399c5d50a10a, type: 3}
  - m_RefCount: 1
    m_Data: {fileID: 21300000, guid: b00eacca9570bfd42b66e39f532d7d3d, type: 3}
  - m_RefCount: 1
    m_Data: {fileID: 21300000, guid: 81b33423a4336af43a6122306e1a0fd5, type: 3}
  - m_RefCount: 1
    m_Data: {fileID: 21300000, guid: e756a25939cc9eb45888d8440a98d0e3, type: 3}
  - m_RefCount: 1
    m_Data: {fileID: 21300000, guid: 1f986df80c39bf64f87cec953244305d, type: 3}
  - m_RefCount: 1
    m_Data: {fileID: 21300000, guid: b26459de7837eab4c9e8354024703c8f, type: 3}
  - m_RefCount: 1
    m_Data: {fileID: 21300000, guid: acb583e8366d6ae4ca8cf8947ea15815, type: 3}
  - m_RefCount: 1
    m_Data: {fileID: 21300000, guid: 7da9a9bdfbfbda548bfa5b5488928531, type: 3}
  - m_RefCount: 1
    m_Data: {fileID: 21300000, guid: 83a0413174f898149892e17a23326d12, type: 3}
  - m_RefCount: 1
    m_Data: {fileID: 21300000, guid: 1fdff625fdaf95042b7477c917cd83bf, type: 3}
  - m_RefCount: 1
    m_Data: {fileID: 21300000, guid: ff7ad79c4bd38204d80bd13bc7fa34c2, type: 3}
  - m_RefCount: 1
    m_Data: {fileID: 21300000, guid: a60543b673449f64884e18a9400d20cc, type: 3}
  - m_RefCount: 1
    m_Data: {fileID: 21300000, guid: f32b50527bda4f341b8b81ca5747bccf, type: 3}
  - m_RefCount: 1
    m_Data: {fileID: 21300000, guid: 7c6493fc739675c4a933741768e6fa22, type: 3}
  - m_RefCount: 1
    m_Data: {fileID: 21300000, guid: 0c315c7779cf7344c9bdaf648f6975ff, type: 3}
  - m_RefCount: 1
    m_Data: {fileID: 21300000, guid: 62c6478cdb66d624b9f130e7dcce38d3, type: 3}
  - m_RefCount: 1
    m_Data: {fileID: 21300000, guid: 74ade272e79b58747b4333654bdfdeb0, type: 3}
  - m_RefCount: 1
    m_Data: {fileID: 21300000, guid: 663bfbd58e6aa5c478b74dc79197cc9a, type: 3}
  - m_RefCount: 1
    m_Data: {fileID: 21300000, guid: 7835c8d576eba7f47ab8e5e03e62acb9, type: 3}
  - m_RefCount: 1
    m_Data: {fileID: 21300000, guid: f93e314db6586af4095a4f717e72e39b, type: 3}
  - m_RefCount: 1
    m_Data: {fileID: 21300000, guid: 844a759bcd136894b972740de3f93e11, type: 3}
  - m_RefCount: 1
    m_Data: {fileID: 21300000, guid: a3e4d3eb65d9e934d915d5ecf3e7c936, type: 3}
  - m_RefCount: 1
    m_Data: {fileID: 21300000, guid: eb8467b9543219a4e840ad92f188364b, type: 3}
  - m_RefCount: 1
    m_Data: {fileID: 21300000, guid: 3118c697414d8c841b70756cfb3b4500, type: 3}
  - m_RefCount: 1
    m_Data: {fileID: 21300000, guid: d44f792d6d6763b42822afec50b8b01d, type: 3}
  - m_RefCount: 1
    m_Data: {fileID: 21300000, guid: 179d73759c3c19448a80805496aa0757, type: 3}
  - m_RefCount: 1
    m_Data: {fileID: 21300000, guid: eb83a15c81d8b3947925b305979f1f8f, type: 3}
  - m_RefCount: 1
    m_Data: {fileID: 21300000, guid: 2361abc5ab770da4fb40ae87af762fb6, type: 3}
  - m_RefCount: 1
    m_Data: {fileID: 21300000, guid: 21a16d99ec04f734da9831c83ae4cee2, type: 3}
  - m_RefCount: 1
    m_Data: {fileID: 21300000, guid: 4d1570c92e31d95468b1688666231d8d, type: 3}
  - m_RefCount: 1
    m_Data: {fileID: 21300000, guid: 9861cf7e6d00e7d4d8d840d3d90c9e0f, type: 3}
  - m_RefCount: 1
    m_Data: {fileID: 21300000, guid: f411cdade32f75941b69045f3ef5b399, type: 3}
  - m_RefCount: 1
    m_Data: {fileID: 21300000, guid: cce6c9378cbbdc24cbd2e3206e2d1245, type: 3}
  - m_RefCount: 1
    m_Data: {fileID: 21300000, guid: 273b3bd3a04097b4880c2cd29eb6266a, type: 3}
  - m_RefCount: 1
    m_Data: {fileID: 21300000, guid: d67a195948b85e74083e63df06dd9314, type: 3}
  - m_RefCount: 1
    m_Data: {fileID: 21300000, guid: 3fb868323b0726d419bce9b8e7251727, type: 3}
  - m_RefCount: 1
    m_Data: {fileID: 21300000, guid: b9c8c44899c9fed40b0fce7c1e3db78f, type: 3}
  - m_RefCount: 1
    m_Data: {fileID: 21300000, guid: 625b61fb183994b4b936f89507b72a5c, type: 3}
  - m_RefCount: 1
    m_Data: {fileID: 21300000, guid: 4abab1c519601dd42be21c90918a1797, type: 3}
  - m_RefCount: 1
    m_Data: {fileID: 21300000, guid: 523d60d5092c11047b890926d75261b3, type: 3}
  - m_RefCount: 1
    m_Data: {fileID: 21300000, guid: 8678256e1f59d004897946d8f4566b94, type: 3}
  - m_RefCount: 1
    m_Data: {fileID: 21300000, guid: e3442bb839b2a164d99620b903bd3a15, type: 3}
  - m_RefCount: 1
    m_Data: {fileID: 21300000, guid: a42bb71cebebedf49803643290db4638, type: 3}
  m_TileMatrixArray:
  - m_RefCount: 107
    m_Data:
      e00: 1
      e01: 0
      e02: 0
      e03: 0
      e10: 0
      e11: 1
      e12: 0
      e13: 0
      e20: 0
      e21: 0
      e22: 1
      e23: 0
      e30: 0
      e31: 0
      e32: 0
      e33: 1
  m_TileColorArray:
  - m_RefCount: 107
    m_Data: {r: 1, g: 1, b: 1, a: 1}
  m_TileObjectToInstantiateArray: []
  m_AnimationFrameRate: 1
  m_Color: {r: 1, g: 1, b: 1, a: 1}
  m_Origin: {x: -3, y: -8, z: 0}
  m_Size: {x: 19, y: 9, z: 1}
  m_TileAnchor: {x: 0.5, y: 0.5, z: 0}
  m_TileOrientation: 0
  m_TileOrientationMatrix:
    e00: 1
    e01: 0
    e02: 0
    e03: 0
    e10: 0
    e11: 1
    e12: 0
    e13: 0
    e20: 0
    e21: 0
    e22: 1
    e23: 0
    e30: 0
    e31: 0
    e32: 0
    e33: 1
--- !u!483693784 &7302475898493586515
TilemapRenderer:
  m_ObjectHideFlags: 0
  m_CorrespondingSourceObject: {fileID: 0}
  m_PrefabInstance: {fileID: 0}
  m_PrefabAsset: {fileID: 0}
  m_GameObject: {fileID: 3068399019131902610}
  m_Enabled: 1
  m_CastShadows: 0
  m_ReceiveShadows: 0
  m_DynamicOccludee: 0
  m_StaticShadowCaster: 0
  m_MotionVectors: 1
  m_LightProbeUsage: 0
  m_ReflectionProbeUsage: 0
  m_RayTracingMode: 0
  m_RayTraceProcedural: 0
  m_RenderingLayerMask: 1
  m_RendererPriority: 0
  m_Materials:
  - {fileID: 10754, guid: 0000000000000000f000000000000000, type: 0}
  m_StaticBatchInfo:
    firstSubMesh: 0
    subMeshCount: 0
  m_StaticBatchRoot: {fileID: 0}
  m_ProbeAnchor: {fileID: 0}
  m_LightProbeVolumeOverride: {fileID: 0}
  m_ScaleInLightmap: 1
  m_ReceiveGI: 1
  m_PreserveUVs: 0
  m_IgnoreNormalsForChartDetection: 0
  m_ImportantGI: 0
  m_StitchLightmapSeams: 1
  m_SelectedEditorRenderState: 0
  m_MinimumChartSize: 4
  m_AutoUVMaxDistance: 0.5
  m_AutoUVMaxAngle: 89
  m_LightmapParameters: {fileID: 0}
  m_SortingLayerID: 0
  m_SortingLayer: 0
  m_SortingOrder: 0
  m_ChunkSize: {x: 32, y: 32, z: 32}
  m_ChunkCullingBounds: {x: 0, y: 0, z: 0}
  m_MaxChunkCount: 16
  m_MaxFrameAge: 16
  m_SortOrder: 0
  m_Mode: 0
  m_DetectChunkCullingBounds: 0
  m_MaskInteraction: 0
--- !u!1 &6393035288323856063
GameObject:
  m_ObjectHideFlags: 0
  m_CorrespondingSourceObject: {fileID: 0}
  m_PrefabInstance: {fileID: 0}
  m_PrefabAsset: {fileID: 0}
  serializedVersion: 6
  m_Component:
  - component: {fileID: 3868434067145876461}
  - component: {fileID: 6153861183850298713}
  m_Layer: 0
  m_Name: New Palette
  m_TagString: Untagged
  m_Icon: {fileID: 0}
  m_NavMeshLayer: 0
  m_StaticEditorFlags: 0
  m_IsActive: 1
--- !u!4 &3868434067145876461
Transform:
  m_ObjectHideFlags: 0
  m_CorrespondingSourceObject: {fileID: 0}
  m_PrefabInstance: {fileID: 0}
  m_PrefabAsset: {fileID: 0}
  m_GameObject: {fileID: 6393035288323856063}
  m_LocalRotation: {x: 0, y: 0, z: 0, w: 1}
  m_LocalPosition: {x: 0, y: 0, z: 0}
  m_LocalScale: {x: 1, y: 1, z: 1}
  m_ConstrainProportionsScale: 0
  m_Children:
  - {fileID: 9099073272406802570}
  m_Father: {fileID: 0}
  m_RootOrder: 0
  m_LocalEulerAnglesHint: {x: 0, y: 0, z: 0}
--- !u!156049354 &6153861183850298713
Grid:
  m_ObjectHideFlags: 0
  m_CorrespondingSourceObject: {fileID: 0}
  m_PrefabInstance: {fileID: 0}
  m_PrefabAsset: {fileID: 0}
  m_GameObject: {fileID: 6393035288323856063}
  m_Enabled: 1
  m_CellSize: {x: 0.59, y: 0.62, z: 0}
  m_CellGap: {x: 0, y: 0, z: 0}
  m_CellLayout: 0
  m_CellSwizzle: 0
--- !u!114 &4119898525540953786
MonoBehaviour:
  m_ObjectHideFlags: 0
  m_CorrespondingSourceObject: {fileID: 0}
  m_PrefabInstance: {fileID: 0}
  m_PrefabAsset: {fileID: 0}
  m_GameObject: {fileID: 0}
  m_Enabled: 1
  m_EditorHideFlags: 0
  m_Script: {fileID: 12395, guid: 0000000000000000e000000000000000, type: 0}
  m_Name: Palette Settings
  m_EditorClassIdentifier: 
  cellSizing: 0
  m_TransparencySortMode: 0
  m_TransparencySortAxis: {x: 0, y: 0, z: 1}
